LFS • canpumf
…
The LFS is one of the most-used PUMF series, since January 2021 the
LFS PUMF is now easily available for direct download instead of needing
to request it via EFT. This makes it very easy to integrate the LFS into
reproducible workflows.

The canpumf package has two functions to facilitate
access to the LFS PUMF. The first lists all LFS pumf versions that are
available for direct download.

list_canpumf_collection() |> 
  filter(Acronym=="LFS")
#> # A tibble: 90 × 5
#>    Title               Acronym Version `Survey Number` url                      
#>    <chr>               <chr>   <chr>   <chr>           <chr>                    
#>  1 Labour Force Survey LFS     2026-05 3701            https://www150.statcan.g…
#>  2 Labour Force Survey LFS     2026-04 3701            https://www150.statcan.g…
#>  3 Labour Force Survey LFS     2026-03 3701            https://www150.statcan.g…
#>  4 Labour Force Survey LFS     2026-02 3701            https://www150.statcan.g…
#>  5 Labour Force Survey LFS     2026-01 3701            https://www150.statcan.g…
#>  6 Labour Force Survey LFS     2025    3701            https://www150.statcan.g…
#>  7 Labour Force Survey LFS     2024    3701            https://www150.statcan.g…
#>  8 Labour Force Survey LFS     2023    3701            https://www150.statcan.g…
#>  9 Labour Force Survey LFS     2022    3701            https://www150.statcan.g…
#> 10 Labour Force Survey LFS     2021    3701            https://www150.statcan.g…
#> # ℹ 80 more rows
…
